<?xml version="1.0" encoding="UTF-8" standalone="no"?>
<!-- Created with Inkscape (http://www.inkscape.org/) -->

<svg
   xmlns:dc="http://purl.org/dc/elements/1.1/"
   xmlns:cc="http://creativecommons.org/ns#"
   xmlns:rdf="http://www.w3.org/1999/02/22-rdf-syntax-ns#"
   xmlns:svg="http://www.w3.org/2000/svg"
   xmlns="http://www.w3.org/2000/svg"
   xmlns:sodipodi="http://sodipodi.sourceforge.net/DTD/sodipodi-0.dtd"
   xmlns:inkscape="http://www.inkscape.org/namespaces/inkscape"
   width="98"
   height="98"
   viewBox="0 0 25.929167 25.929167"
   version="1.1"
   id="svg8"
   inkscape:version="0.92.4 5da689c313, 2019-01-14"
   sodipodi:docname="icon.svg"
   inkscape:export-filename="/home/thejackimonster/gitlab/lge/resources/icon.png"
   inkscape:export-xdpi="192"
   inkscape:export-ydpi="192">
  <defs
     id="defs2" />
  <sodipodi:namedview
     id="base"
     pagecolor="#ffffff"
     bordercolor="#666666"
     borderopacity="1.0"
     inkscape:pageopacity="0.0"
     inkscape:pageshadow="2"
     inkscape:zoom="2.8"
     inkscape:cx="67.278269"
     inkscape:cy="61.606454"
     inkscape:document-units="mm"
     inkscape:current-layer="layer1"
     showgrid="false"
     units="px"
     width="128px"
     inkscape:pagecheckerboard="true"
     borderlayer="true"
     inkscape:window-width="1920"
     inkscape:window-height="1016"
     inkscape:window-x="1920"
     inkscape:window-y="27"
     inkscape:window-maximized="1" />
  <metadata
     id="metadata5">
    <rdf:RDF>
      <cc:Work
         rdf:about="">
        <dc:format>image/svg+xml</dc:format>
        <dc:type
           rdf:resource="http://purl.org/dc/dcmitype/StillImage" />
        <dc:title></dc:title>
      </cc:Work>
    </rdf:RDF>
  </metadata>
  <g
     inkscape:label="Layer 1"
     inkscape:groupmode="layer"
     id="layer1"
     transform="translate(0,-271.07083)">
    <g
       id="g4576"
       transform="matrix(9.3447143,0,0,9.3447143,-612.60394,-568.37307)" />
    <g
       id="g837"
       transform="matrix(0.5,0,0,0.5,4.2333413,144.26666)">
      <rect
         style="opacity:1;fill:#1070b4;fill-opacity:1;stroke:#03a0bf;stroke-width:0.10394318;stroke-linecap:round;stroke-linejoin:round;stroke-miterlimit:4;stroke-dasharray:none;stroke-dashoffset:0;stroke-opacity:1;paint-order:stroke markers fill"
         id="rect4558"
         width="3.5202091"
         height="3.5202091"
         x="65.60817"
         y="89.03344"
         ry="0.36307091"
         transform="matrix(9.3447142,0,0,9.3447142,-612.60395,-568.37306)" />
      <g
         id="g4566"
         transform="matrix(9.3447142,0,0,9.3447142,-612.87729,-568.4156)">
        <text
           id="text4520-9-0"
           y="91.746628"
           x="66.734268"
           style="font-style:normal;font-variant:normal;font-weight:normal;font-stretch:normal;font-size:3.52777767px;line-height:6.61458349px;font-family:'Linux Libertine Mono';-inkscape-font-specification:'Linux Libertine Mono';letter-spacing:0px;word-spacing:0px;fill:#ffff00;fill-opacity:1;stroke:none;stroke-width:0.26458332"
           xml:space="preserve"><tspan
             style="font-style:normal;font-variant:normal;font-weight:normal;font-stretch:normal;font-family:'Linux Libertine Mono';-inkscape-font-specification:'Linux Libertine Mono';fill:#ffff00;stroke-width:0.26458332"
             y="91.746628"
             x="66.734268"
             id="tspan4518-1-7"
             sodipodi:role="line">E</tspan></text>
        <text
           id="text4520-9"
           y="91.826889"
           x="66.326935"
           style="font-style:normal;font-variant:normal;font-weight:normal;font-stretch:normal;font-size:3.52777767px;line-height:6.61458349px;font-family:'Linux Libertine Mono';-inkscape-font-specification:'Linux Libertine Mono';letter-spacing:0px;word-spacing:0px;fill:#ffffff;fill-opacity:1;stroke:none;stroke-width:0.26458332"
           xml:space="preserve"><tspan
             style="font-style:normal;font-variant:normal;font-weight:normal;font-stretch:normal;font-family:'Linux Libertine Mono';-inkscape-font-specification:'Linux Libertine Mono';fill:#ffffff;stroke-width:0.26458332"
             y="91.826889"
             x="66.326935"
             id="tspan4518-1"
             sodipodi:role="line">G</tspan></text>
        <text
           id="text4520"
           y="92.019974"
           x="65.690559"
           style="font-style:normal;font-variant:normal;font-weight:normal;font-stretch:normal;font-size:3.52777767px;line-height:6.61458302px;font-family:'Linux Libertine Mono';-inkscape-font-specification:'Linux Libertine Mono';letter-spacing:0px;word-spacing:0px;fill:#000000;fill-opacity:1;stroke:none;stroke-width:0.26458332"
           xml:space="preserve"><tspan
             style="font-style:normal;font-variant:normal;font-weight:normal;font-stretch:normal;font-family:'Linux Libertine Mono';-inkscape-font-specification:'Linux Libertine Mono';stroke-width:0.26458332"
             y="92.019974"
             x="65.690559"
             id="tspan4518"
             sodipodi:role="line">L</tspan></text>
      </g>
    </g>
  </g>
</svg>
